QuartusProjects/04_PWM/simulation/questa/top_level_PWM_tb.vcd
$date
	Wed Feb 26 09:05:04 2025
$end
$version
	Questa Intel Starter FPGA Edition Version 2023.3
$end
$timescale
	1ps
$end

$scope module top_level_PWM_tb $end
$var reg 2 ! push_buttons [1:0] $end
$var reg 1 " clk $end
$var reg 1 # rst $end
$var wire 1 $ pwm_out [35] $end
$var wire 1 % pwm_out [34] $end
$var wire 1 & pwm_out [33] $end
$var wire 1 ' pwm_out [32] $end
$var wire 1 ( pwm_out [31] $end
$var wire 1 ) pwm_out [30] $end
$var wire 1 * pwm_out [29] $end
$var wire 1 + pwm_out [28] $end
$var wire 1 , pwm_out [27] $end
$var wire 1 - pwm_out [26] $end
$var wire 1 . pwm_out [25] $end
$var wire 1 / pwm_out [24] $end
$var wire 1 0 pwm_out [23] $end
$var wire 1 1 pwm_out [22] $end
$var wire 1 2 pwm_out [21] $end
$var wire 1 3 pwm_out [20] $end
$var wire 1 4 pwm_out [19] $end
$var wire 1 5 pwm_out [18] $end
$var wire 1 6 pwm_out [17] $end
$var wire 1 7 pwm_out [16] $end
$var wire 1 8 pwm_out [15] $end
$var wire 1 9 pwm_out [14] $end
$var wire 1 : pwm_out [13] $end
$var wire 1 ; pwm_out [12] $end
$var wire 1 < pwm_out [11] $end
$var wire 1 = pwm_out [10] $end
$var wire 1 > pwm_out [9] $end
$var wire 1 ? pwm_out [8] $end
$var wire 1 @ pwm_out [7] $end
$var wire 1 A pwm_out [6] $end
$var wire 1 B pwm_out [5] $end
$var wire 1 C pwm_out [4] $end
$var wire 1 D pwm_out [3] $end
$var wire 1 E pwm_out [2] $end
$var wire 1 F pwm_out [1] $end
$var wire 1 G pwm_out [0] $end

$scope module uut $end
$var parameter 32 H base_freq $end
$var parameter 32 I target_freq $end
$var parameter 32 J counts $end
$var parameter 32 K X $end
$var wire 1 L KEY [1] $end
$var wire 1 M KEY [0] $end
$var wire 1 N MAX10_CLK1_50 $end
$var wire 1 O SW [9] $end
$var wire 1 P SW [8] $end
$var wire 1 Q SW [7] $end
$var wire 1 R SW [6] $end
$var wire 1 S SW [5] $end
$var wire 1 T SW [4] $end
$var wire 1 U SW [3] $end
$var wire 1 V SW [2] $end
$var wire 1 W SW [1] $end
$var wire 1 X SW [0] $end
$var wire 1 $ GPIO [35] $end
$var wire 1 % GPIO [34] $end
$var wire 1 & GPIO [33] $end
$var wire 1 ' GPIO [32] $end
$var wire 1 ( GPIO [31] $end
$var wire 1 ) GPIO [30] $end
$var wire 1 * GPIO [29] $end
$var wire 1 + GPIO [28] $end
$var wire 1 , GPIO [27] $end
$var wire 1 - GPIO [26] $end
$var wire 1 . GPIO [25] $end
$var wire 1 / GPIO [24] $end
$var wire 1 0 GPIO [23] $end
$var wire 1 1 GPIO [22] $end
$var wire 1 2 GPIO [21] $end
$var wire 1 3 GPIO [20] $end
$var wire 1 4 GPIO [19] $end
$var wire 1 5 GPIO [18] $end
$var wire 1 6 GPIO [17] $end
$var wire 1 7 GPIO [16] $end
$var wire 1 8 GPIO [15] $end
$var wire 1 9 GPIO [14] $end
$var wire 1 : GPIO [13] $end
$var wire 1 ; GPIO [12] $end
$var wire 1 < GPIO [11] $end
$var wire 1 = GPIO [10] $end
$var wire 1 > GPIO [9] $end
$var wire 1 ? GPIO [8] $end
$var wire 1 @ GPIO [7] $end
$var wire 1 A GPIO [6] $end
$var wire 1 B GPIO [5] $end
$var wire 1 C GPIO [4] $end
$var wire 1 D GPIO [3] $end
$var wire 1 E GPIO [2] $end
$var wire 1 F GPIO [1] $end
$var wire 1 G GPIO [0] $end
$var wire 1 Y neg_pb_inc $end
$var wire 1 Z neg_pb_dec $end
$var wire 1 [ slow_clk $end
$var wire 1 \ debounced_pb_inc $end
$var wire 1 ] debounced_pb_dec $end
$var wire 1 ^ debounced_rst $end
$var reg 32 _ DC [31:0] $end
$var reg 32 ` DC_counter [31:0] $end
$var reg 1 a pwm_out_reg $end

$scope module u1 $end
$var parameter 32 b FREQ $end
$var parameter 32 c CLK_FREQ $end
$var parameter 32 d COUNT_MAX $end
$var wire 1 N clk $end
$var wire 1 ^ rst $end
$var reg 1 e clk_div $end
$var reg 32 f count [31:0] $end
$upscope $end

$scope module INCREASE $end
$var wire 1 [ clk $end
$var wire 1 Y pb_in $end
$var wire 1 ^ rst $end
$var wire 1 \ pb_out $end
$var wire 1 g Q0 $end
$var wire 1 h Q1 $end
$var wire 1 i Q2 $end
$var wire 1 j Q2_bar $end
$var wire 1 k slow_clk $end

$scope module u1 $end
$var parameter 32 l FREQ $end
$var parameter 32 m CLK_FREQ $end
$var parameter 32 n COUNT_MAX $end
$var wire 1 [ clk $end
$var wire 1 ^ rst $end
$var reg 1 o clk_div $end
$var reg 32 p count [31:0] $end
$upscope $end

$scope module d0 $end
$var wire 1 Y d $end
$var wire 1 k clk $end
$var tri1 1 q clrn $end
$var tri1 1 r prn $end
$var wire 1 g q $end

$scope module inst $end
$var wire 1 Y d $end
$var wire 1 k clk $end
$var wire 1 s ena $end
$var wire 1 t clr $end
$var wire 1 u pre $end
$var wire 1 v ald $end
$var wire 1 w adt $end
$var wire 1 x sclr $end
$var wire 1 y sload $end
$var reg 1 z q $end
$var reg 1 { clk_pre $end
$upscope $end
$upscope $end

$scope module d1 $end
$var wire 1 g d $end
$var wire 1 k clk $end
$var tri1 1 | clrn $end
$var tri1 1 } prn $end
$var wire 1 h q $end

$scope module inst $end
$var wire 1 g d $end
$var wire 1 k clk $end
$var wire 1 ~ ena $end
$var wire 1 !! clr $end
$var wire 1 "! pre $end
$var wire 1 #! ald $end
$var wire 1 $! adt $end
$var wire 1 %! sclr $end
$var wire 1 &! sload $end
$var reg 1 '! q $end
$var reg 1 (! clk_pre $end
$upscope $end
$upscope $end

$scope module d2 $end
$var wire 1 h d $end
$var wire 1 k clk $end
$var tri1 1 )! clrn $end
$var tri1 1 *! prn $end
$var wire 1 i q $end

$scope module inst $end
$var wire 1 h d $end
$var wire 1 k clk $end
$var wire 1 +! ena $end
$var wire 1 ,! clr $end
$var wire 1 -! pre $end
$var wire 1 .! ald $end
$var wire 1 /! adt $end
$var wire 1 0! sclr $end
$var wire 1 1! sload $end
$var reg 1 2! q $end
$var reg 1 3! clk_pre $end
$upscope $end
$upscope $end
$upscope $end

$scope module DECREASE $end
$var wire 1 [ clk $end
$var wire 1 Z pb_in $end
$var wire 1 ^ rst $end
$var wire 1 ] pb_out $end
$var wire 1 4! Q0 $end
$var wire 1 5! Q1 $end
$var wire 1 6! Q2 $end
$var wire 1 7! Q2_bar $end
$var wire 1 8! slow_clk $end

$scope module u1 $end
$var parameter 32 9! FREQ $end
$var parameter 32 :! CLK_FREQ $end
$var parameter 32 ;! COUNT_MAX $end
$var wire 1 [ clk $end
$var wire 1 ^ rst $end
$var reg 1 <! clk_div $end
$var reg 32 =! count [31:0] $end
$upscope $end

$scope module d0 $end
$var wire 1 Z d $end
$var wire 1 8! clk $end
$var tri1 1 >! clrn $end
$var tri1 1 ?! prn $end
$var wire 1 4! q $end

$scope module inst $end
$var wire 1 Z d $end
$var wire 1 8! clk $end
$var wire 1 @! ena $end
$var wire 1 A! clr $end
$var wire 1 B! pre $end
$var wire 1 C! ald $end
$var wire 1 D! adt $end
$var wire 1 E! sclr $end
$var wire 1 F! sload $end
$var reg 1 G! q $end
$var reg 1 H! clk_pre $end
$upscope $end
$upscope $end

$scope module d1 $end
$var wire 1 4! d $end
$var wire 1 8! clk $end
$var tri1 1 I! clrn $end
$var tri1 1 J! prn $end
$var wire 1 5! q $end

$scope module inst $end
$var wire 1 4! d $end
$var wire 1 8! clk $end
$var wire 1 K! ena $end
$var wire 1 L! clr $end
$var wire 1 M! pre $end
$var wire 1 N! ald $end
$var wire 1 O! adt $end
$var wire 1 P! sclr $end
$var wire 1 Q! sload $end
$var reg 1 R! q $end
$var reg 1 S! clk_pre $end
$upscope $end
$upscope $end

$scope module d2 $end
$var wire 1 5! d $end
$var wire 1 8! clk $end
$var tri1 1 T! clrn $end
$var tri1 1 U! prn $end
$var wire 1 6! q $end

$scope module inst $end
$var wire 1 5! d $end
$var wire 1 8! clk $end
$var wire 1 V! ena $end
$var wire 1 W! clr $end
$var wire 1 X! pre $end
$var wire 1 Y! ald $end
$var wire 1 Z! adt $end
$var wire 1 [! sclr $end
$var wire 1 \! sload $end
$var reg 1 ]! q $end
$var reg 1 ^! clk_pre $end
$upscope $end
$upscope $end
$upscope $end
$upscope $end
$upscope $end
$enddefinitions $end
#0
$dumpvars
b11 !
0"
0#
b0 _
b0 `
0a
xe
bx f
xo
bx p
0z
x{
0'!
x(!
02!
x3!
x<!
bx =!
0G!
xH!
0R!
xS!
0]!
x^!
b10111110101111000010000000 H
b110010 I
b11110100001001000000 J
b11000011010100000 K
b110000110101000 b
b10111110101111000010000000 c
b1111101000 d
b110010 l
b10111110101111000010000000 m
b1111010000100100000 n
b110010 9!
b10111110101111000010000000 :!
b1111010000100100000 ;!
0G
zF
zE
zD
zC
zB
zA
z@
z?
z>
z=
z<
z;
z:
z9
z8
z7
z6
z5
z4
z3
z2
z1
z0
z/
z.
z-
z,
z+
z*
z)
z(
z'
z&
z%
z$
0Y
0Z
x[
0\
0]
0^
0g
0h
0i
1j
xk
04!
05!
06!
17!
x8!
0X
0N
1M
1L
0W
0V
0U
0T
0S
0R
0Q
0P
0O
1q
1r
0y
0x
0w
0v
0u
0t
1s
1|
1}
0&!
0%!
0$!
0#!
0"!
0!!
1~
1)!
1*!
01!
00!
0/!
0.!
0-!
0,!
1+!
1>!
1?!
0F!
0E!
0D!
0C!
0B!
0A!
1@!
1I!
1J!
0Q!
0P!
0O!
0N!
0M!
0L!
1K!
1T!
1U!
0\!
0[!
0Z!
0Y!
0X!
0W!
1V!
$end
#10000
1"
1N
#20000
0"
0N
#30000
1"
1N
#40000
0"
0N
#50000
1#
1"
1X
1N
#60000
0"
0N
#70000
1"
1N
#80000
0"
0N
#90000
1"
1N
#100000
0"
0N
#110000
1"
1N
#120000
0"
0N
#130000
1"
1N
#140000
0"
0N
#150000
1"
1N
#160000
0"
0N
#170000
1"
1N
#180000
0"
0N
#190000
1"
1N
#200000
0"
0N
#210000
1"
1N
#220000
0"
0N
#230000
1"
1N
#240000
0"
0N
#250000
1"
1N
#260000
0"
0N
#270000
1"
1N
#280000
0"
0N
#290000
1"
1N
#300000
0"
0N
#310000
1"
1N
#320000
0"
0N
#330000
1"
1N
#340000
0"
0N
#350000
1"
1N
#360000
0"
0N
#370000
1"
1N
#380000
0"
0N
#390000
1"
1N
#400000
0"
0N
#410000
1"
1N
#420000
0"
0N
#430000
1"
1N
#440000
0"
0N
#450000
1"
1N
#460000
0"
0N
#470000
1"
1N
#480000
0"
0N
#490000
1"
1N
#500000
0"
0N
#510000
1"
1N
#520000
0"
0N
#530000
1"
1N
#540000
0"
0N
#550000
1"
1N
#560000
0"
0N
#570000
1"
1N
#580000
0"
0N
#590000
1"
1N
#600000
0"
0N
#610000
1"
1N
#620000
0"
0N
#630000
1"
1N
#640000
0"
0N
#650000
1"
1N
#660000
0"
0N
#670000
1"
1N
#680000
0"
0N
#690000
1"
1N
#700000
0"
0N
#710000
1"
1N
#720000
0"
0N
#730000
1"
1N
#740000
0"
0N
#750000
1"
1N
#760000
0"
0N
#770000
1"
1N
#780000
0"
0N
#790000
1"
1N
#800000
0"
0N
#810000
1"
1N
#820000
0"
0N
#830000
1"
1N
#840000
0"
0N
#850000
1"
1N
#860000
0"
0N
#870000
1"
1N
#880000
0"
0N
#890000
1"
1N
#900000
0"
0N
#910000
1"
1N
#920000
0"
0N
#930000
1"
1N
#940000
0"
0N
#950000
1"
1N
#960000
0"
0N
#970000
1"
1N
#980000
0"
0N
#990000
1"
1N
#1000000
0"
0N
#1010000
1"
1N
#1020000
0"
0N
#1030000
1"
1N
#1040000
0"
0N
#1050000
b10 !
1"
0M
1Y
1N
#1060000
0"
0N
#1070000
1"
1N
#1080000
0"
0N
#1090000
1"
1N
#1100000
0"
0N
#1110000
1"
1N
#1120000
0"
0N
#1130000
1"
1N
#1140000
0"
0N
#1150000
1"
1N
#1160000
0"
0N
#1170000
1"
1N
#1180000
0"
0N
#1190000
1"
1N
#1200000
0"
0N
#1210000
1"
1N
#1220000
0"
0N
#1230000
1"
1N
#1240000
0"
0N
#1250000
1"
1N
#1260000
0"
0N
#1270000
1"
1N
#1280000
0"
0N
#1290000
1"
1N
#1300000
0"
0N
#1310000
1"
1N
#1320000
0"
0N
#1330000
1"
1N
#1340000
0"
0N
#1350000
1"
1N
#1360000
0"
0N
#1370000
1"
1N
#1380000
0"
0N
#1390000
1"
1N
#1400000
0"
0N
#1410000
1"
1N
#1420000
0"
0N
#1430000
1"
1N
#1440000
0"
0N
#1450000
1"
1N
#1460000
0"
0N
#1470000
1"
1N
#1480000
0"
0N
#1490000
1"
1N
#1500000
0"
0N
#1510000
1"
1N
#1520000
0"
0N
#1530000
1"
1N
#1540000
0"
0N
#1550000
1"
1N
#1560000
0"
0N
#1570000
1"
1N
#1580000
0"
0N
#1590000
1"
1N
#1600000
0"
0N
#1610000
1"
1N
#1620000
0"
0N
#1630000
1"
1N
#1640000
0"
0N
#1650000
1"
1N
#1660000
0"
0N
#1670000
1"
1N
#1680000
0"
0N
#1690000
1"
1N
#1700000
0"
0N
#1710000
1"
1N
#1720000
0"
0N
#1730000
1"
1N
#1740000
0"
0N
#1750000
1"
1N
#1760000
0"
0N
#1770000
1"
1N
#1780000
0"
0N
#1790000
1"
1N
#1800000
0"
0N
#1810000
1"
1N
#1820000
0"
0N
#1830000
1"
1N
#1840000
0"
0N
#1850000
1"
1N
#1860000
0"
0N
#1870000
1"
1N
#1880000
0"
0N
#1890000
1"
1N
#1900000
0"
0N
#1910000
1"
1N
#1920000
0"
0N
#1930000
1"
1N
#1940000
0"
0N
#1950000
1"
1N
#1960000
0"
0N
#1970000
1"
1N
#1980000
0"
0N
#1990000
1"
1N
#2000000
0"
0N
#2010000
1"
1N
#2020000
0"
0N
#2030000
1"
1N
#2040000
0"
0N
#2050000
b11 !
1"
1M
0Y
1N
#2060000
0"
0N
#2070000
1"
1N
#2080000
0"
0N
#2090000
1"
1N
#2100000
0"
0N
#2110000
1"
1N
#2120000
0"
0N
#2130000
1"
1N
#2140000
0"
0N
#2150000
1"
1N
#2160000
0"
0N
#2170000
1"
1N
#2180000
0"
0N
#2190000
1"
1N
#2200000
0"
0N
#2210000
1"
1N
#2220000
0"
0N
#2230000
1"
1N
#2240000
0"
0N
#2250000
1"
1N
#2260000
0"
0N
#2270000
1"
1N
#2280000
0"
0N
#2290000
1"
1N
#2300000
0"
0N
#2310000
1"
1N
#2320000
0"
0N
#2330000
1"
1N
#2340000
0"
0N
#2350000
1"
1N
#2360000
0"
0N
#2370000
1"
1N
#2380000
0"
0N
#2390000
1"
1N
#2400000
0"
0N
#2410000
1"
1N
#2420000
0"
0N
#2430000
1"
1N
#2440000
0"
0N
#2450000
1"
1N
#2460000
0"
0N
#2470000
1"
1N
#2480000
0"
0N
#2490000
1"
1N
#2500000
0"
0N
#2510000
1"
1N
#2520000
0"
0N
#2530000
1"
1N
#2540000
0"
0N
#2550000
1"
1N
#2560000
0"
0N
#2570000
1"
1N
#2580000
0"
0N
#2590000
1"
1N
#2600000
0"
0N
#2610000
1"
1N
#2620000
0"
0N
#2630000
1"
1N
#2640000
0"
0N
#2650000
1"
1N
#2660000
0"
0N
#2670000
1"
1N
#2680000
0"
0N
#2690000
1"
1N
#2700000
0"
0N
#2710000
1"
1N
#2720000
0"
0N
#2730000
1"
1N
#2740000
0"
0N
#2750000
1"
1N
#2760000
0"
0N
#2770000
1"
1N
#2780000
0"
0N
#2790000
1"
1N
#2800000
0"
0N
#2810000
1"
1N
#2820000
0"
0N
#2830000
1"
1N
#2840000
0"
0N
#2850000
1"
1N
#2860000
0"
0N
#2870000
1"
1N
#2880000
0"
0N
#2890000
1"
1N
#2900000
0"
0N
#2910000
1"
1N
#2920000
0"
0N
#2930000
1"
1N
#2940000
0"
0N
#2950000
1"
1N
#2960000
0"
0N
#2970000
1"
1N
#2980000
0"
0N
#2990000
1"
1N
#3000000
0"
0N
#3010000
1"
1N
#3020000
0"
0N
#3030000
1"
1N
#3040000
0"
0N
#3050000
b10 !
1"
0M
1Y
1N
#3060000
0"
0N
#3070000
1"
1N
#3080000
0"
0N
#3090000
1"
1N
#3100000
0"
0N
#3110000
1"
1N
#3120000
0"
0N
#3130000
1"
1N
#3140000
0"
0N
#3150000
1"
1N
#3160000
0"
0N
#3170000
1"
1N
#3180000
0"
0N
#3190000
1"
1N
#3200000
0"
0N
#3210000
1"
1N
#3220000
0"
0N
#3230000
1"
1N
#3240000
0"
0N
#3250000
1"
1N
#3260000
0"
0N
#3270000
1"
1N
#3280000
0"
0N
#3290000
1"
1N
#3300000
0"
0N
#3310000
1"
1N
#3320000
0"
0N
#3330000
1"
1N
#3340000
0"
0N
#3350000
1"
1N
#3360000
0"
0N
#3370000
1"
1N
#3380000
0"
0N
#3390000
1"
1N
#3400000
0"
0N
#3410000
1"
1N
#3420000
0"
0N
#3430000
1"
1N
#3440000
0"
0N
#3450000
1"
1N
#3460000
0"
0N
#3470000
1"
1N
#3480000
0"
0N
#3490000
1"
1N
#3500000
0"
0N
#3510000
1"
1N
#3520000
0"
0N
#3530000
1"
1N
#3540000
0"
0N
#3550000
1"
1N
#3560000
0"
0N
#3570000
1"
1N
#3580000
0"
0N
#3590000
1"
1N
#3600000
0"
0N
#3610000
1"
1N
#3620000
0"
0N
#3630000
1"
1N
#3640000
0"
0N
#3650000
1"
1N
#3660000
0"
0N
#3670000
1"
1N
#3680000
0"
0N
#3690000
1"
1N
#3700000
0"
0N
#3710000
1"
1N
#3720000
0"
0N
#3730000
1"
1N
#3740000
0"
0N
#3750000
1"
1N
#3760000
0"
0N
#3770000
1"
1N
#3780000
0"
0N
#3790000
1"
1N
#3800000
0"
0N
#3810000
1"
1N
#3820000
0"
0N
#3830000
1"
1N
#3840000
0"
0N
#3850000
1"
1N
#3860000
0"
0N
#3870000
1"
1N
#3880000
0"
0N
#3890000
1"
1N
#3900000
0"
0N
#3910000
1"
1N
#3920000
0"
0N
#3930000
1"
1N
#3940000
0"
0N
#3950000
1"
1N
#3960000
0"
0N
#3970000
1"
1N
#3980000
0"
0N
#3990000
1"
1N
#4000000
0"
0N
#4010000
1"
1N
#4020000
0"
0N
#4030000
1"
1N
#4040000
0"
0N
#4050000
b11 !
1"
1M
0Y
1N
#4060000
0"
0N
#4070000
1"
1N
#4080000
0"
0N
#4090000
1"
1N
#4100000
0"
0N
#4110000
1"
1N
#4120000
0"
0N
#4130000
1"
1N
#4140000
0"
0N
#4150000
1"
1N
#4160000
0"
0N
#4170000
1"
1N
#4180000
0"
0N
#4190000
1"
1N
#4200000
0"
0N
#4210000
1"
1N
#4220000
0"
0N
#4230000
1"
1N
#4240000
0"
0N
#4250000
1"
1N
#4260000
0"
0N
#4270000
1"
1N
#4280000
0"
0N
#4290000
1"
1N
#4300000
0"
0N
#4310000
1"
1N
#4320000
0"
0N
#4330000
1"
1N
#4340000
0"
0N
#4350000
1"
1N
#4360000
0"
0N
#4370000
1"
1N
#4380000
0"
0N
#4390000
1"
1N
#4400000
0"
0N
#4410000
1"
1N
#4420000
0"
0N
#4430000
1"
1N
#4440000
0"
0N
#4450000
1"
1N
#4460000
0"
0N
#4470000
1"
1N
#4480000
0"
0N
#4490000
1"
1N
#4500000
0"
0N
#4510000
1"
1N
#4520000
0"
0N
#4530000
1"
1N
#4540000
0"
0N
#4550000
1"
1N
#4560000
0"
0N
#4570000
1"
1N
#4580000
0"
0N
#4590000
1"
1N
#4600000
0"
0N
#4610000
1"
1N
#4620000
0"
0N
#4630000
1"
1N
#4640000
0"
0N
#4650000
1"
1N
#4660000
0"
0N
#4670000
1"
1N
#4680000
0"
0N
#4690000
1"
1N
#4700000
0"
0N
#4710000
1"
1N
#4720000
0"
0N
#4730000
1"
1N
#4740000
0"
0N
#4750000
1"
1N
#4760000
0"
0N
#4770000
1"
1N
#4780000
0"
0N
#4790000
1"
1N
#4800000
0"
0N
#4810000
1"
1N
#4820000
0"
0N
#4830000
1"
1N
#4840000
0"
0N
#4850000
1"
1N
#4860000
0"
0N
#4870000
1"
1N
#4880000
0"
0N
#4890000
1"
1N
#4900000
0"
0N
#4910000
1"
1N
#4920000
0"
0N
#4930000
1"
1N
#4940000
0"
0N
#4950000
1"
1N
#4960000
0"
0N
#4970000
1"
1N
#4980000
0"
0N
#4990000
1"
1N
#5000000
0"
0N
#5010000
1"
1N
#5020000
0"
0N
#5030000
1"
1N
#5040000
0"
0N
#5050000
b10 !
1"
0M
1Y
1N
#5060000
0"
0N
#5070000
1"
1N
#5080000
0"
0N
#5090000
1"
1N
#5100000
0"
0N
#5110000
1"
1N
#5120000
0"
0N
#5130000
1"
1N
#5140000
0"
0N
#5150000
1"
1N
#5160000
0"
0N
#5170000
1"
1N
#5180000
0"
0N
#5190000
1"
1N
#5200000
0"
0N
#5210000
1"
1N
#5220000
0"
0N
#5230000
1"
1N
#5240000
0"
0N
#5250000
1"
1N
#5260000
0"
0N
#5270000
1"
1N
#5280000
0"
0N
#5290000
1"
1N
#5300000
0"
0N
#5310000
1"
1N
#5320000
0"
0N
#5330000
1"
1N
#5340000
0"
0N
#5350000
1"
1N
#5360000
0"
0N
#5370000
1"
1N
#5380000
0"
0N
#5390000
1"
1N
#5400000
0"
0N
#5410000
1"
1N
#5420000
0"
0N
#5430000
1"
1N
#5440000
0"
0N
#5450000
1"
1N
#5460000
0"
0N
#5470000
1"
1N
#5480000
0"
0N
#5490000
1"
1N
#5500000
0"
0N
#5510000
1"
1N
#5520000
0"
0N
#5530000
1"
1N
#5540000
0"
0N
#5550000
1"
1N
#5560000
0"
0N
#5570000
1"
1N
#5580000
0"
0N
#5590000
1"
1N
#5600000
0"
0N
#5610000
1"
1N
#5620000
0"
0N
#5630000
1"
1N
#5640000
0"
0N
#5650000
1"
1N
#5660000
0"
0N
#5670000
1"
1N
#5680000
0"
0N
#5690000
1"
1N
#5700000
0"
0N
#5710000
1"
1N
#5720000
0"
0N
#5730000
1"
1N
#5740000
0"
0N
#5750000
1"
1N
#5760000
0"
0N
#5770000
1"
1N
#5780000
0"
0N
#5790000
1"
1N
#5800000
0"
0N
#5810000
1"
1N
#5820000
0"
0N
#5830000
1"
1N
#5840000
0"
0N
#5850000
1"
1N
#5860000
0"
0N
#5870000
1"
1N
#5880000
0"
0N
#5890000
1"
1N
#5900000
0"
0N
#5910000
1"
1N
#5920000
0"
0N
#5930000
1"
1N
#5940000
0"
0N
#5950000
1"
1N
#5960000
0"
0N
#5970000
1"
1N
#5980000
0"
0N
#5990000
1"
1N
#6000000
0"
0N
#6010000
1"
1N
#6020000
0"
0N
#6030000
1"
1N
#6040000
0"
0N
#6050000
b11 !
1"
1M
0Y
1N
